"Este es un String "
23
01234567
0XAA20F243
+01234567
-0XAA20F243
1.23f
123.345
123E10
123.22E10
.22E10
.E10   //se separara en OPERADOR ., ID E y numero 10
+1.23F
-123.345
-123E10
0XAA20FGGG  //se espera que separe el hexadecimal del IDENTIFICADOR GGG
123r  //se espera que separe el numero del IDENTIFICADOR r
ID123  //se espera que se clasifique como un ID
014255689  //se espera que no se acepte como octal y de un error
